1896,12
1900,11
1904,11
1906,11.2
1908,10.8
1912,10.8
1920,10.8
1924,10.6
1928,10.8
1932,10.3
1936,10.3
1948,10.3
1952,10.4
1956,10.5
1960,10.2
1964,10
1968,9.95
1972,10.14
1976,10.06
1980,10.25
1984,9.99
1992,9.96
1996,9.84
2000,9.87
2004,9.85
2008,9.69
2012,9.63
2016,9.81
