Id,EpiOrStroma
0,2
1,2
2,1
3,2
4,2
5,1
6,2
7,1
8,2
9,1
10,2
11,2
12,1
13,1
14,2
15,2
16,2
17,2
18,1
19,2
20,2
21,2
22,2
23,2
24,2
25,2
26,1
27,2
28,2
29,2
30,2
31,1
32,1
33,1
34,1
35,1
36,2
37,2
38,2
39,1
40,2
41,1
42,2
43,1
44,2
45,2
46,2
47,1
48,1
49,2
50,2
51,2
52,1
53,2
54,2
55,1
56,2
57,2
58,1
59,2
60,1
61,2
62,2
63,2
64,2
65,2
66,2
67,1
68,2
69,2
70,2
71,1
72,1
73,1
74,2
75,2
76,2
77,1
78,2
79,2
80,1
81,1
82,2
83,2
84,2
85,2
86,2
87,2
88,2
89,2
90,2
91,2
92,2
93,2
94,2
95,2
96,2
97,1
98,2
99,2
100,2
101,1
102,1
103,2
104,1
105,2
106,2
107,1
108,2
109,2
110,2
111,2
112,2
113,1
114,2
115,2
116,1
117,2
118,1
119,2
120,2
121,1
122,2
123,1
124,2
125,1
126,1
127,1
128,2
129,2
130,1
131,2
132,1
133,1
134,1
135,2
136,2
137,2
138,2
139,1
140,2
141,1
142,2
143,1
144,1
145,2
146,1
147,2
148,2
149,1
150,1
151,1
152,2
153,2
154,2
155,1
156,2
157,2
158,2
159,2
160,1
161,2
162,2
163,2
164,1
165,2
166,1
167,1
168,1
169,1
170,1
171,1
172,2
173,1
174,1
175,1
176,2
177,2
178,1
179,2
180,2
181,1
182,2
183,2
184,2
185,2
186,2
187,1
188,2
189,2
190,1
191,1
192,2
193,2
194,2
195,2
196,1
197,1
198,2
199,2
200,2
201,1
202,1
203,1
204,1
205,2
206,2
207,2
208,2
209,2
210,2
211,2
212,2
213,1
214,2
215,1
216,1
217,2
218,1
219,2
220,2
221,1
222,2
223,2
224,1
225,2
226,2
227,1
228,2
229,2
230,1
231,1
232,2
233,2
234,2
235,2
236,2
237,2
238,2
239,2
240,1
241,1
242,2
243,1
244,2
245,1
246,1
247,1
248,1
249,2
250,2
251,1
252,2
253,2
254,1
255,2
256,1
257,2
258,1
259,1
260,1
261,2
262,1
263,2
264,2
265,1
266,2
267,1
268,2
269,2
270,2
271,1
272,1
273,2
274,2
275,1
276,2
277,1
278,2
279,2
280,2
281,1
282,2
283,2
284,1
285,1
286,2
287,2
288,2
289,2
290,1
291,1
292,2
293,1
294,2
295,2
296,1
297,2
298,2
299,1
300,2
301,1
302,2
303,1
304,2
305,1
306,1
307,2
308,1
309,1
310,2
311,2
312,2
313,2
314,2
315,2
316,1
317,2
318,1
319,1
320,2
321,2
322,2
323,2
324,2
325,2
326,2
327,1
328,1
329,1
330,2
331,2
332,1
333,2
334,2
335,1
336,1
337,2
338,2
339,2
340,2
341,2
342,2
343,2
344,2
345,1
346,1
347,2
348,2
349,2
350,2
351,2
352,2
353,2
354,2
355,2
356,2
357,2
358,1
359,1
360,1
361,1
362,1
363,1
364,2
365,2
366,2
367,2
368,2
369,2
370,2
371,1
372,2
373,2
374,2
375,1
376,2
377,2
378,2
379,2
380,1
381,2
382,1
383,2
384,2
385,1
386,2
387,2
388,2
389,2
390,2
391,1
392,1
393,2
394,2
395,2
396,2
397,2
398,2
399,2
400,2
401,2
402,2
403,1
404,2
405,2
406,2
407,1
408,1
409,2
410,2
411,1
412,2
413,2
414,1
415,1
416,1
417,2
418,1
419,2
420,2
421,2
422,2
423,2
424,2
425,1
426,1
427,2
428,2
429,2
430,2
431,2
432,1
433,1
434,2
435,2
436,2
437,1
438,2
439,2
440,2
441,2
442,1
443,2
444,1
445,2
446,2
447,2
448,2
449,1
450,2
451,2
452,2
453,2
454,2
455,2
456,2
457,2
458,2
459,2
460,1
461,2
462,1
463,2
464,1
465,1
466,2
467,2
468,2
469,2
470,2
471,1
472,2
473,2
474,1
475,2
476,2
477,1
478,2
479,1
480,2
481,2
482,2
483,1
484,2
485,2
486,2
487,1
488,1
489,1
490,2
491,2
492,1
493,2
494,2
495,2
496,1
497,2
498,1
499,1
500,1
501,2
502,1
503,1
504,1
505,2
506,1
507,1
508,1
509,2
510,1
511,1
512,2
513,2
514,1
515,2
516,2
517,2
518,2
519,1
520,1
521,2
522,1
523,2
524,2
525,1
526,2
527,2
528,2
529,2
530,2
531,1
532,1
533,2
534,2
535,2
536,2
537,2
538,2
539,1
540,2
541,1
542,2
543,1
544,2
545,2
546,2
547,1
548,2
549,2
550,1
551,2
552,2
553,1
554,2
555,1
556,2
557,2
558,1
559,1
560,1
561,1
562,2
563,2
564,1
565,2
566,1
567,1
568,2
569,1
570,2
571,2
572,2
573,1
574,2
575,2
576,1
577,1
578,2
579,1
580,2
581,2
582,1
583,1
584,2
585,2
586,2
587,2
588,1
589,2
590,2
591,1
592,2
593,2
594,2
595,2
596,2
597,1
598,2
599,2
600,2
601,1
602,1
603,1
604,2
605,2
606,1
607,1
608,2
609,2
610,1
611,2
612,2
613,1
614,2
615,2
616,2
617,2
618,2
619,1
620,1
621,1
622,1
623,2
624,1
625,1
626,1
627,2
628,2
629,2
630,2
631,1
632,2
633,1
634,2
635,2
636,2
637,2
638,1
639,2
640,2
641,2
642,2
643,2
644,2
645,1
646,2
647,2
648,2
649,1
650,2
651,2
652,1
653,1
654,1
655,1
656,2
657,2
658,2
659,2
660,2
661,2
662,2
663,2
664,2
665,1
666,2
667,2
668,1
669,2
670,1
671,2
672,1
673,1
674,1
675,2
676,2
677,2
678,1
679,1
680,2
681,2
682,2
683,2
684,2
685,2
686,2
687,2
688,2
689,1
690,2
691,1
692,1
693,1
694,1
695,2
696,2
697,2
698,2
699,2
700,2
701,2
702,2
703,2
704,2
705,2
706,2
707,1
708,2
709,2
710,2
711,2
712,1
713,1
714,2
715,2
716,2
717,2
718,2
719,2
720,2
721,1
722,1
723,2
724,2
725,2
726,2
727,2
728,2
729,2
730,1
731,2
732,1
733,1
734,2
735,2
736,2
737,1
738,2
739,2
740,2
741,2
742,2
743,1
744,2
745,2
746,2
747,2
748,1
749,2
750,2
751,2
752,2
753,1
754,1
755,1
756,2
757,2
758,1
759,1
760,2
761,2
762,2
763,2
764,1
765,2
766,1
767,2
768,1
769,1
770,2
771,2
772,1
773,2
774,1
775,2
776,2
777,1
778,2
779,2
780,2
781,1
782,1
783,2
784,1
785,2
786,2
787,2
788,2
789,2
790,2
791,2
792,2
793,2
794,2
795,2
796,2
797,1
798,2
799,1
800,1
801,1
802,2
803,2
804,2
805,2
806,2
807,2
808,2
809,1
810,2
811,2
812,1
813,1
814,2
815,2
816,1
817,2
818,1
819,1
820,1
821,1
822,2
823,1
824,2
825,1
826,2
827,2
828,2
829,2
830,1
831,2
832,2
833,2
834,2
835,2
836,2
837,2
838,2
839,2
840,2
841,1
842,2
843,1
844,2
845,2
846,2
847,2
848,1
849,2
850,2
851,2
852,2
853,2
854,2
855,1
856,2
857,1
858,1
859,2
860,2
861,1
862,2
863,2
864,2
865,1
866,2
867,2
868,2
869,2
870,1
871,2
872,1
873,2
874,2
875,2
876,1
877,1
878,2
879,2
880,2
881,1
882,2
883,1
884,2
885,1
886,1
887,2
888,2
889,2
890,1
891,1
892,1
893,2
894,2
895,2
896,1
897,2
898,1
899,1
900,1
901,2
902,2
903,2
904,2
905,2
906,2
907,2
908,1
909,2
910,1
911,1
912,1
913,2
914,1
915,2
916,2
917,1
918,2
919,1
920,1
921,1
922,2
923,2
924,1
925,2
926,2
927,2
928,2
929,2
930,1
931,2
932,2
933,2
934,2
935,2
936,2
937,1
938,2
939,2
940,2
941,2
942,1
943,2
944,1
945,2
946,2
947,1
948,1
949,1
950,1
951,1
952,2
953,1
954,2
955,2
956,2
957,1
958,2
959,2
960,1
961,1
962,2
963,2
964,2
965,2
966,2
967,1
968,2
969,2
970,2
971,2
972,1
973,2
974,2
975,2
976,2
977,1
978,2
979,2
980,1
981,2
982,1
983,2
984,1
985,2
986,2
987,2
988,1
989,1
990,2
991,1
992,2
993,1
994,2
995,2
996,2
997,2
998,2
999,2
1000,1
1001,2
1002,2
1003,1
1004,1
1005,2
1006,2
1007,2
1008,2
1009,2
1010,2
1011,1
1012,1
1013,1
1014,1
1015,2
1016,1
1017,1
1018,2
1019,1
1020,2
1021,2
1022,2
1023,1
1024,1
1025,2
1026,2
1027,2
1028,1
1029,2
1030,2
1031,1
1032,2
1033,2
1034,1
1035,2
1036,1
1037,2
1038,2
1039,2
1040,2
1041,1
1042,2
1043,2
1044,2
1045,2
1046,1
1047,2
1048,2
1049,1
1050,2
1051,1
1052,2
1053,2
1054,1
1055,2
1056,2
1057,2
1058,2
1059,2
1060,2
1061,1
1062,2
1063,2
1064,1
1065,2
1066,2
1067,1
1068,1
1069,2
1070,2
1071,2
1072,1
1073,2
1074,2
1075,2
1076,2
1077,2
1078,2
1079,1
1080,2
1081,1
1082,2
1083,2
1084,1
1085,2
1086,2
1087,2
1088,2
1089,1
1090,2
1091,2
1092,2
1093,2
1094,2
1095,2
1096,2
1097,1
1098,2
1099,2
1100,2
1101,2
1102,2
1103,2
1104,1
1105,1
1106,1
1107,2
1108,1
1109,2
1110,2
1111,2
1112,1
1113,2
1114,1
1115,1
1116,1
1117,2
1118,1
1119,2
1120,2
1121,2
1122,2
1123,1
1124,2
1125,2
1126,1
1127,1
1128,1
1129,2
1130,2
1131,2
1132,1
1133,2
1134,2
1135,2
1136,2
1137,1
1138,2
1139,2
1140,1
1141,1
1142,1
1143,2
1144,1
1145,2
1146,1
1147,2
1148,2
1149,2
1150,2
1151,2
1152,2
1153,1
1154,2
1155,2
1156,1
1157,1
1158,1
1159,2
1160,1
1161,2
1162,2
1163,2
1164,2
1165,1
1166,1
1167,1
1168,2
1169,2
1170,2
1171,2
1172,2
1173,1
1174,2
1175,1
1176,2
1177,2
1178,1
1179,1
1180,2
1181,1
1182,1
1183,2
1184,1
1185,2
1186,2
1187,2
1188,2
1189,2
1190,2
1191,2
1192,2
1193,1
1194,1
1195,2
1196,1
1197,2
1198,2
1199,2
1200,2
1201,1
1202,1
1203,2
1204,2
1205,1
1206,1
1207,1
1208,1
1209,1
1210,2
1211,1
1212,1
1213,2
1214,2
1215,1
1216,2
1217,2
1218,2
1219,2
1220,2
1221,1
1222,2
1223,2
1224,2
1225,2
1226,1
1227,2
1228,1
1229,2
1230,2
1231,2
1232,2
1233,2
1234,1
1235,2
1236,2
1237,2
1238,2
1239,1
1240,2
1241,1
1242,2
1243,1
1244,2
1245,2
1246,1
1247,2
1248,2
1249,1
1250,2
1251,2
1252,2
1253,2
1254,2
1255,1
1256,2
1257,2
1258,2
1259,2
1260,1
1261,1
1262,2
1263,2
1264,2
1265,2
1266,2
1267,1
1268,2
1269,2
1270,2
1271,2
1272,2
1273,2
1274,2
1275,2
1276,1
1277,1
1278,1
1279,2
1280,1
1281,2
1282,2
1283,1
1284,2
1285,2
1286,2
1287,2
1288,2
1289,2
1290,2
1291,2
1292,2
1293,2
1294,2
1295,2
1296,1
1297,1
1298,2
1299,2
1300,2
1301,2
1302,1
1303,1
1304,2
1305,1
1306,1
1307,1
1308,1
1309,1
1310,1
1311,2
1312,2
1313,1
1314,2
1315,2
1316,2
1317,1
1318,1
1319,1
1320,2
1321,1
1322,2
1323,1
1324,2
1325,1
1326,2
1327,2
1328,2
1329,2
1330,2
1331,1
1332,1
1333,2
1334,1
1335,2
1336,1
1337,2
1338,2
1339,2
1340,1
1341,2
1342,1
1343,1
1344,2
1345,2
1346,2
1347,2
1348,2
1349,1
1350,1
1351,2
1352,2
1353,2
1354,2
1355,2
1356,1
1357,1
1358,1
1359,2
1360,1
1361,1
1362,1
1363,2
1364,1
1365,2
1366,2
1367,1
1368,1
1369,2
1370,2
1371,2
1372,2
1373,2
1374,2
1375,2
1376,2
1377,2
1378,2
1379,1
1380,2
1381,1
1382,2
1383,2
1384,2
1385,2
1386,2
1387,2
1388,1
1389,1
1390,1
1391,2
1392,2
1393,2
1394,2
1395,2
1396,2
1397,2
1398,1
1399,1
1400,2
1401,2
1402,2
1403,1
1404,2
1405,2
1406,2
1407,2
1408,2
1409,2
1410,2
1411,1
1412,1
1413,1
1414,2
1415,2
1416,1
1417,2
1418,1
1419,2
1420,2
1421,2
1422,2
1423,1
1424,2
1425,1
1426,2
1427,1
1428,1
1429,1
1430,2
1431,2
1432,2
1433,2
1434,2
1435,2
1436,2
1437,1
1438,1
1439,2
1440,1
1441,2
1442,1
1443,2
1444,2
1445,2
1446,1
1447,2
1448,2
1449,2
1450,2
1451,2
1452,2
1453,2
1454,2
1455,2
1456,2
1457,2
1458,2
1459,2
1460,2
1461,2
1462,1
1463,1
1464,1
1465,1
1466,1
1467,2
1468,2
1469,1
1470,2
1471,1
1472,1
1473,1
1474,2
1475,1
1476,2
1477,2
1478,1
1479,2
1480,2
1481,2
1482,2
1483,2
1484,1
1485,1
1486,2
1487,1
1488,2
1489,2
1490,2
1491,1
1492,2
1493,2
1494,1
1495,2
1496,2
1497,1
1498,2
1499,1
1500,1
1501,2
1502,2
1503,2
1504,1
1505,1
1506,1
1507,1
1508,1
1509,2
1510,1
1511,2
1512,2
1513,2
1514,2
1515,2
1516,2
1517,2
1518,1
1519,2
1520,2
1521,1
1522,2
1523,2
1524,2
1525,1
1526,2
1527,2
1528,1
1529,2
1530,1
1531,2
1532,2
1533,2
1534,2
1535,1
1536,2
1537,2
1538,2
1539,2
1540,2
1541,2
1542,2
1543,1
1544,2
1545,2
1546,2
1547,2
1548,2
1549,2
1550,1
1551,2
1552,1
1553,1
1554,2
1555,1
1556,1
1557,2
1558,1
1559,1
1560,1
1561,2
1562,2
1563,2
1564,2
1565,2
1566,2
1567,2
1568,2
1569,1
1570,1
1571,2
1572,2
1573,1
1574,2
1575,1
1576,2
1577,2
1578,2
1579,2
1580,2
1581,1
1582,1
1583,2
1584,2
1585,2
1586,1
1587,2
1588,1
1589,2
1590,1
1591,2
1592,1
1593,2
1594,1
1595,2
